lab-9-large-waves.csv

#Digilent WaveForms Oscilloscope Acquisition
#Device Name: Discovery2
#Serial Number: SN:210321A18754
#Date Time: 2019-04-23 16:58:36.115
#Sample rate: 800000Hz
#Samples: 8192
#Trigger: Source: Wavegen 1 Condition: Rising
#Channel 1: Range: 500 mV/div Offset: -2.5 V
#Wavegen Channel 1: Running
#Mode: Simple
#Type: Square
#Frequency: 500 Hz
#Amplitude: 1 V
#Offset: 3 V
#Symmetry: 50 %
#Phase: 0 °
#Power Supplies: ON
#Positive Supply: ON
#Voltage: 5 V
#Negative Supply: OFF
#Voltage: -1 V

Time (s),Channel 1 (V)
-0.00512,3.95364
-0.00511875,3.95398
-0.0051175,3.95331
-0.00511625,3.95364
-0.005115,3.95364
-0.00511375,3.95331
-0.0051125,3.95331
-0.00511125,3.95364
-0.00511,3.95364
-0.00510875,3.95331
-0.0051075,3.95398
-0.00510625,3.95331
-0.005105,3.95364
-0.00510375,3.95364
-0.0051025,3.95297
-0.00510125,3.95398
-0.0051,3.95364
-0.00509875,3.95364
-0.0050975,3.95364
-0.00509625,3.95398
-0.005095,3.95364
-0.00509375,3.95331
-0.0050925,3.95364
-0.00509125,3.95297
-0.00509,3.95331
-0.00508875,3.95297
-0.0050875,3.95297
-0.00508625,3.95364
-0.005085,3.95331
-0.00508375,3.95398
-0.0050825,3.95364
-0.00508125,3.95297
-0.00508,3.95297
-0.00507875,3.95331
-0.0050775,3.95364
-0.00507625,3.95331
-0.005075,3.95364
-0.00507375,3.95364
-0.0050725,3.95331
-0.00507125,3.95297
-0.00507,3.95297
-0.00506875,3.95331
-0.0050675,3.95364
-0.00506625,3.95331
-0.005065,3.95331
-0.00506375,3.95364
-0.0050625,3.95398
-0.00506125,3.95331
-0.00506,3.95364
-0.00505875,3.95331
-0.0050575,3.95331
-0.00505625,3.95331
-0.005055,3.95331
-0.00505375,3.95331
-0.0050525,3.95297
-0.00505125,3.95331
-0.00505,3.95297
-0.00504875,3.95263
-0.0050475,3.95331
-0.00504625,3.95331
-0.005045,3.95331
-0.00504375,3.95297
-0.0050425,3.95364
-0.00504125,3.95364
-0.00504,3.95364
-0.00503875,3.95398
-0.0050375,3.95364
-0.00503625,3.95331
-0.005035,3.95331
-0.00503375,3.95331
-0.0050325,3.95331
-0.00503125,3.95364
-0.00503,3.95364
-0.00502875,3.95331
-0.0050275,3.95364
-0.00502625,3.95364
-0.005025,3.95331
-0.00502375,3.95331
-0.0050225,3.95331
-0.00502125,3.95364
-0.00502,3.95331
-0.00501875,3.95364
-0.0050175,3.95331
-0.00501625,3.95364
-0.005015,3.95398
-0.00501375,3.95398
-0.0050125,3.95364
-0.00501125,3.95364
-0.00501,3.95331
-0.00500875,3.95331
-0.0050075,3.95398
-0.00500625,3.95331
-0.005005,3.95297
-0.00500375,3.95364
-0.0050025,3.95331
-0.00500125,3.95263
-0.005,3.93212
-0.00499875,3.89144
-0.0049975,3.84941
-0.00499625,3.80771
-0.004995,3.76635
-0.00499375,3.72432
-0.0049925,3.68229
-0.00499125,3.64093
-0.00499,3.5989
-0.00498875,3.55721
-0.0049875,3.51551
-0.00498625,3.47416
-0.004985,3.43246
-0.00498375,3.3911
-0.0049825,3.35008
-0.00498125,3.30906
-0.00498,3.2677
-0.00497875,3.22668
-0.0049775,3.18532
-0.00497625,3.14396
-0.004975,3.10328
-0.00497375,3.06259
-0.0049725,3.02157
-0.00497125,2.98088
-0.00497,2.94053
-0.00496875,2.89985
-0.0049675,2.8595
-0.00496625,2.81949
-0.004965,2.77947
-0.00496375,2.73879
-0.0049625,2.69844
-0.00496125,2.65842
-0.00496,2.61807
-0.00495875,2.57772
-0.0049575,2.53738
-0.00495625,2.49803
-0.004955,2.45836
-0.00495375,2.41902
-0.0049525,2.37968
-0.00495125,2.33966
-0.00495,2.30066
-0.00494875,2.26199
-0.0049475,2.225
-0.00494625,2.19003
-0.004945,2.15876
-0.00494375,2.13153
-0.0049425,2.10799
-0.00494125,2.08748
-0.00494,2.071
-0.00493875,2.05688
-0.0049375,2.04444
-0.00493625,2.03368
-0.004935,2.0246
-0.00493375,2.01754
-0.0049325,2.01115
-0.00493125,2.0051
-0.00493,2.00005
-0.00492875,1.99568
-0.0049275,1.99198
-0.00492625,1.98929
-0.004925,1.9866
-0.00492375,1.98391
-0.0049225,1.9819
-0.00492125,1.98055
-0.00492,1.97887
-0.00491875,1.97786
-0.0049175,1.97652
-0.00491625,1.97652
-0.004915,1.97551
-0.00491375,1.97484
-0.0049125,1.97416
-0.00491125,1.97383
-0.00491,1.97316
-0.00490875,1.97282
-0.0049075,1.97248
-0.00490625,1.97282
-0.004905,1.97215
-0.00490375,1.97215
-0.0049025,1.97215
-0.00490125,1.97181
-0.0049,1.97215
-0.00489875,1.97215
-0.0048975,1.97215
-0.00489625,1.97181
-0.004895,1.97181
-0.00489375,1.97248
-0.0048925,1.97215
-0.00489125,1.97181
-0.00489,1.97181
-0.00488875,1.97215
-0.0048875,1.97181
-0.00488625,1.97181
-0.004885,1.97147
-0.00488375,1.97181
-0.0048825,1.97181
-0.00488125,1.97215
-0.00488,1.97181
-0.00487875,1.97181
-0.0048775,1.97215
-0.00487625,1.97215
-0.004875,1.97181
-0.00487375,1.97181
-0.0048725,1.97215
-0.00487125,1.97215
-0.00487,1.97147
-0.00486875,1.97147
-0.0048675,1.97181
-0.00486625,1.97181
-0.004865,1.97147
-0.00486375,1.97147
-0.0048625,1.97147
-0.00486125,1.97147
-0.00486,1.97114
-0.00485875,1.97147
-0.0048575,1.97114
-0.00485625,1.97114
-0.004855,1.97147
-0.00485375,1.97181
-0.0048525,1.97114
-0.00485125,1.97147
-0.00485,1.97147
-0.00484875,1.97114
-0.0048475,1.97147
-0.00484625,1.97114
-0.004845,1.97147
-0.00484375,1.97114
-0.0048425,1.97181
-0.00484125,1.97147
-0.00484,1.9708
-0.00483875,1.9708
-0.0048375,1.97114
-0.00483625,1.97181
-0.004835,1.97181
-0.00483375,1.97181
-0.0048325,1.97114
-0.00483125,1.9708
-0.00483,1.97114
-0.00482875,1.9708
-0.0048275,1.9708
-0.00482625,1.97147
-0.004825,1.97114
-0.00482375,1.97114
-0.0048225,1.97147
-0.00482125,1.9708
-0.00482,1.97147
-0.00481875,1.97114
-0.0048175,1.97114
-0.00481625,1.97114
-0.004815,1.97114
-0.00481375,1.97047
-0.0048125,1.9708
-0.00481125,1.97114
-0.00481,1.97114
-0.00480875,1.9708
-0.0048075,1.9708
-0.00480625,1.9708
-0.004805,1.9708
-0.00480375,1.9708
-0.0048025,1.97114
-0.00480125,1.9708
-0.0048,1.9708
-0.00479875,1.9708
-0.0047975,1.9708
-0.00479625,1.9708
-0.004795,1.97114
-0.00479375,1.9708
-0.0047925,1.9708
-0.00479125,1.9708
-0.00479,1.9708
-0.00478875,1.97114
-0.0047875,1.9708
-0.00478625,1.97114
-0.004785,1.97114
-0.00478375,1.97147
-0.0047825,1.97114
-0.00478125,1.97114
-0.00478,1.97114
-0.00477875,1.97114
-0.0047775,1.97114
-0.00477625,1.97114
-0.004775,1.9708
-0.00477375,1.97114
-0.0047725,1.9708
-0.00477125,1.9708
-0.00477,1.9708
-0.00476875,1.97047
-0.0047675,1.97047
-0.00476625,1.97114
-0.004765,1.97114
-0.00476375,1.9708
-0.0047625,1.97114
-0.00476125,1.97114
-0.00476,1.97147
-0.00475875,1.9708
-0.0047575,1.97114
-0.00475625,1.97114
-0.004755,1.97114
-0.00475375,1.9708
-0.0047525,1.9708
-0.00475125,1.97047
-0.00475,1.9708
-0.00474875,1.97013
-0.0047475,1.9708
-0.00474625,1.9708
-0.004745,1.9708
-0.00474375,1.97047
-0.0047425,1.97013
-0.00474125,1.9708
-0.00474,1.9708
-0.00473875,1.97114
-0.0047375,1.9708
-0.00473625,1.97047
-0.004735,1.9708
-0.00473375,1.9708
-0.0047325,1.9708
-0.00473125,1.9708
-0.00473,1.9708
-0.00472875,1.9708
-0.0047275,1.97114
-0.00472625,1.9708
-0.004725,1.9708
-0.00472375,1.97114
-0.0047225,1.97147
-0.00472125,1.97047
-0.00472,1.9708
-0.00471875,1.97114
-0.0047175,1.9708
-0.00471625,1.9708
-0.004715,1.9708
-0.00471375,1.97114
-0.0047125,1.9708
-0.00471125,1.97114
-0.00471,1.97181
-0.00470875,1.97114
-0.0047075,1.97114
-0.00470625,1.97147
-0.004705,1.97114
-0.00470375,1.9708
-0.0047025,1.9708
-0.00470125,1.97114
-0.0047,1.9708
-0.00469875,1.97114
-0.0046975,1.97114
-0.00469625,1.9708
-0.004695,1.97114
-0.00469375,1.9708
-0.0046925,1.97114
-0.00469125,1.9708
-0.00469,1.9708
-0.00468875,1.97114
-0.0046875,1.97114
-0.00468625,1.97114
-0.004685,1.97114
-0.00468375,1.97114
-0.0046825,1.97114
-0.00468125,1.9708
-0.00468,1.97114
-0.00467875,1.97114
-0.0046775,1.97114
-0.00467625,1.9708
-0.004675,1.9708
-0.00467375,1.9708
-0.0046725,1.97114
-0.00467125,1.97114
-0.00467,1.97114
-0.00466875,1.97114
-0.0046675,1.97114
-0.00466625,1.9708
-0.004665,1.9708
-0.00466375,1.9708
-0.0046625,1.9708
-0.00466125,1.97047
-0.00466,1.97114
-0.00465875,1.9708
-0.0046575,1.9708
-0.00465625,1.97047
-0.004655,1.97114
-0.00465375,1.97114
-0.0046525,1.9708
-0.00465125,1.97114
-0.00465,1.97147
-0.00464875,1.97114
-0.0046475,1.97114
-0.00464625,1.97114
-0.004645,1.97114
-0.00464375,1.9708
-0.0046425,1.97114
-0.00464125,1.9708
-0.00464,1.97047
-0.00463875,1.9708
-0.0046375,1.97114
-0.00463625,1.97147
-0.004635,1.9708
-0.00463375,1.97114
-0.0046325,1.97114
-0.00463125,1.97114
-0.00463,1.9708
-0.00462875,1.9708
-0.0046275,1.97114
-0.00462625,1.9708
-0.004625,1.97114
-0.00462375,1.9708
-0.0046225,1.9708
-0.00462125,1.9708
-0.00462,1.97114
-0.00461875,1.97114
-0.0046175,1.97013
-0.00461625,1.9708
-0.004615,1.97181
-0.00461375,1.97114
-0.0046125,1.9708
-0.00461125,1.9708
-0.00461,1.97114
-0.00460875,1.97114
-0.0046075,1.9708
-0.00460625,1.9708
-0.004605,1.97147
-0.00460375,1.97114
-0.0046025,1.97114
-0.00460125,1.9708
-0.0046,1.9708
-0.00459875,1.97114
-0.0045975,1.9708
-0.00459625,1.97047
-0.004595,1.97047
-0.00459375,1.9708
-0.0045925,1.97114
-0.00459125,1.9708
-0.00459,1.97114
-0.00458875,1.97114
-0.0045875,1.97047
-0.00458625,1.97114
-0.004585,1.97114
-0.00458375,1.97114
-0.0045825,1.9708
-0.00458125,1.97114
-0.00458,1.9708
-0.00457875,1.97147
-0.0045775,1.9708
-0.00457625,1.9708
-0.004575,1.9708
-0.00457375,1.97114
-0.0045725,1.9708
-0.00457125,1.97114
-0.00457,1.97114
-0.00456875,1.97114
-0.0045675,1.97114
-0.00456625,1.97114
-0.004565,1.9708
-0.00456375,1.97047
-0.0045625,1.97114
-0.00456125,1.97147
-0.00456,1.97114
-0.00455875,1.9708
-0.0045575,1.9708
-0.00455625,1.97047
-0.004555,1.97013
-0.00455375,1.97114
-0.0045525,1.9708
-0.00455125,1.97114
-0.00455,1.97114
-0.00454875,1.97047
-0.0045475,1.97047
-0.00454625,1.97013
-0.004545,1.97047
-0.00454375,1.9708
-0.0045425,1.9708
-0.00454125,1.9708
-0.00454,1.9708
-0.00453875,1.97047
-0.0045375,1.9708
-0.00453625,1.9708
-0.004535,1.97114
-0.00453375,1.9708
-0.0045325,1.9708
-0.00453125,1.97114
-0.00453,1.9708
-0.00452875,1.9708
-0.0045275,1.97114
-0.00452625,1.9708
-0.004525,1.9708
-0.00452375,1.9708
-0.0045225,1.9708
-0.00452125,1.97047
-0.00452,1.9708
-0.00451875,1.9708
-0.0045175,1.97114
-0.00451625,1.9708
-0.004515,1.97114
-0.00451375,1.9708
-0.0045125,1.97047
-0.00451125,1.9708
-0.00451,1.97114
-0.00450875,1.9708
-0.0045075,1.9708
-0.00450625,1.97047
-0.004505,1.97114
-0.00450375,1.97047
-0.0045025,1.9708
-0.00450125,1.97114
-0.0045,1.9708
-0.00449875,1.9708
-0.0044975,1.97114
-0.00449625,1.97114
-0.004495,1.9708
-0.00449375,1.9708
-0.0044925,1.97114
-0.00449125,1.97114
-0.00449,1.9708
-0.00448875,1.9708
-0.0044875,1.97114
-0.00448625,1.97114
-0.004485,1.97114
-0.00448375,1.97114
-0.0044825,1.97114
-0.00448125,1.97114
-0.00448,1.97114
-0.00447875,1.97114
-0.0044775,1.97114
-0.00447625,1.97114
-0.004475,1.97147
-0.00447375,1.9708
-0.0044725,1.97147
-0.00447125,1.97114
-0.00447,1.97114
-0.00446875,1.9708
-0.0044675,1.9708
-0.00446625,1.9708
-0.004465,1.9708
-0.00446375,1.9708
-0.0044625,1.97047
-0.00446125,1.97114
-0.00446,1.97114
-0.00445875,1.9708
-0.0044575,1.9708
-0.00445625,1.97114
-0.004455,1.97047
-0.00445375,1.9708
-0.0044525,1.9708
-0.00445125,1.97114
-0.00445,1.9708
-0.00444875,1.97114
-0.0044475,1.97114
-0.00444625,1.9708
-0.004445,1.97114
-0.00444375,1.97114
-0.0044425,1.97114
-0.00444125,1.97114
-0.00444,1.9708
-0.00443875,1.97047
-0.0044375,1.97114
-0.00443625,1.9708
-0.004435,1.97114
-0.00443375,1.97114
-0.0044325,1.9708
-0.00443125,1.97114
-0.00443,1.97114
-0.00442875,1.97114
-0.0044275,1.97114
-0.00442625,1.97114
-0.004425,1.97114
-0.00442375,1.97114
-0.0044225,1.97114
-0.00442125,1.97114
-0.00442,1.97147
-0.00441875,1.97114
-0.0044175,1.9708
-0.00441625,1.9708
-0.004415,1.9708
-0.00441375,1.9708
-0.0044125,1.97114
-0.00441125,1.97114
-0.00441,1.97114
-0.00440875,1.97114
-0.0044075,1.97147
-0.00440625,1.97147
-0.004405,1.9708
-0.00440375,1.97114
-0.0044025,1.97047
-0.00440125,1.9708
-0.0044,1.9708
-0.00439875,1.9708
-0.0043975,1.9708
-0.00439625,1.97013
-0.004395,1.9708
-0.00439375,1.9708
-0.0043925,1.9708
-0.00439125,1.97114
-0.00439,1.97114
-0.00438875,1.9708
-0.0043875,1.9708
-0.00438625,1.9708
-0.004385,1.97013
-0.00438375,1.97047
-0.0043825,1.97047
-0.00438125,1.9708
-0.00438,1.97047
-0.00437875,1.97047
-0.0043775,1.97047
-0.00437625,1.97047
-0.004375,1.97047
-0.00437375,1.97047
-0.0043725,1.97114
-0.00437125,1.97114
-0.00437,1.97114
-0.00436875,1.9708
-0.0043675,1.9708
-0.00436625,1.97047
-0.004365,1.97047
-0.00436375,1.97013
-0.0043625,1.97047
-0.00436125,1.97013
-0.00436,1.9708
-0.00435875,1.9708
-0.0043575,1.9708
-0.00435625,1.97047
-0.004355,1.97013
-0.00435375,1.97013
-0.0043525,1.97047
-0.00435125,1.97047
-0.00435,1.9708
-0.00434875,1.97047
-0.0043475,1.97013
-0.00434625,1.97047
-0.004345,1.9708
-0.00434375,1.97047
-0.0043425,1.97047
-0.00434125,1.9708
-0.00434,1.97047
-0.00433875,1.97047
-0.0043375,1.97047
-0.00433625,1.9708
-0.004335,1.9708
-0.00433375,1.9708
-0.0043325,1.9708
-0.00433125,1.9708
-0.00433,1.9708
-0.00432875,1.9708
-0.0043275,1.9708
-0.00432625,1.97114
-0.004325,1.97114
-0.00432375,1.9708
-0.0043225,1.9708
-0.00432125,1.9708
-0.00432,1.97047
-0.00431875,1.97114
-0.0043175,1.9708
-0.00431625,1.97047
-0.004315,1.9708
-0.00431375,1.9708
-0.0043125,1.97114
-0.00431125,1.97114
-0.00431,1.97114
-0.00430875,1.9708
-0.0043075,1.9708
-0.00430625,1.9708
-0.004305,1.97114
-0.00430375,1.97147
-0.0043025,1.97147
-0.00430125,1.9708
-0.0043,1.9708
-0.00429875,1.9708
-0.0042975,1.97047
-0.00429625,1.97047
-0.004295,1.97047
-0.00429375,1.9708
-0.0042925,1.97147
-0.00429125,1.97114
-0.00429,1.9708
-0.00428875,1.9708
-0.0042875,1.9708
-0.00428625,1.97047
-0.004285,1.9708
-0.00428375,1.9708
-0.0042825,1.9708
-0.00428125,1.9708
-0.00428,1.97114
-0.00427875,1.97114
-0.0042775,1.97181
-0.00427625,1.97114
-0.004275,1.97147
-0.00427375,1.9708
-0.0042725,1.97114
-0.00427125,1.97147
-0.00427,1.97147
-0.00426875,1.9708
-0.0042675,1.97114
-0.00426625,1.97114
-0.004265,1.9708
-0.00426375,1.97114
-0.0042625,1.97147
-0.00426125,1.97147
-0.00426,1.9708
-0.00425875,1.97114
-0.0042575,1.9708
-0.00425625,1.9708
-0.004255,1.9708
-0.00425375,1.97114
-0.0042525,1.97114
-0.00425125,1.97114
-0.00425,1.97114
-0.00424875,1.97147
-0.0042475,1.97147
-0.00424625,1.97147
-0.004245,1.97114
-0.00424375,1.97147
-0.0042425,1.97147
-0.00424125,1.97147
-0.00424,1.97147
-0.00423875,1.97114
-0.0042375,1.97047
-0.00423625,1.97114
-0.004235,1.9708
-0.00423375,1.97114
-0.0042325,1.9708
-0.00423125,1.97114
-0.00423,1.97114
-0.00422875,1.97114
-0.0042275,1.97114
-0.00422625,1.9708
-0.004225,1.9708
-0.00422375,1.97114
-0.0042225,1.97114
-0.00422125,1.9708
-0.00422,1.9708
-0.00421875,1.9708
-0.0042175,1.9708
-0.00421625,1.97114
-0.004215,1.97047
-0.00421375,1.9708
-0.0042125,1.97147
-0.00421125,1.97147
-0.00421,1.97114
-0.00420875,1.9708
-0.0042075,1.9708
-0.00420625,1.97114
-0.004205,1.97147
-0.00420375,1.97147
-0.0042025,1.97114
-0.00420125,1.9708
-0.0042,1.9708
-0.00419875,1.9708
-0.0041975,1.97114
-0.00419625,1.97114
-0.004195,1.9708
-0.00419375,1.9708
-0.0041925,1.97114
-0.00419125,1.97047
-0.00419,1.97114
-0.00418875,1.9708
-0.0041875,1.9708
-0.00418625,1.97114
-0.004185,1.97114
-0.00418375,1.97147
-0.0041825,1.97114
-0.00418125,1.97114
-0.00418,1.97114
-0.00417875,1.9708
-0.0041775,1.97147
-0.00417625,1.97147
-0.004175,1.97114
-0.00417375,1.9708
-0.0041725,1.9708
-0.00417125,1.9708
-0.00417,1.9708
-0.00416875,1.97047
-0.0041675,1.97047
-0.00416625,1.9708
-0.004165,1.9708
-0.00416375,1.9708
-0.0041625,1.97147
-0.00416125,1.97114
-0.00416,1.97114
-0.00415875,1.97047
-0.0041575,1.97047
-0.00415625,1.97013
-0.004155,1.97047
-0.00415375,1.97047
-0.0041525,1.9708
-0.00415125,1.97047
-0.00415,1.97047
-0.00414875,1.9708
-0.0041475,1.97147
-0.00414625,1.9708
-0.004145,1.9708
-0.00414375,1.9708
-0.0041425,1.9708
-0.00414125,1.9708
-0.00414,1.9708
-0.00413875,1.9708
-0.0041375,1.9708
-0.00413625,1.9708
-0.004135,1.9708
-0.00413375,1.97114
-0.0041325,1.9708
-0.00413125,1.97114
-0.00413,1.97147
-0.00412875,1.97114
-0.0041275,1.97114
-0.00412625,1.97114
-0.004125,1.9708
-0.00412375,1.9708
-0.0041225,1.9708
-0.00412125,1.97114
-0.00412,1.97114
-0.00411875,1.97114
-0.0041175,1.97147
-0.00411625,1.97147
-0.004115,1.97147
-0.00411375,1.97147
-0.0041125,1.97114
-0.00411125,1.97147
-0.00411,1.97147
-0.00410875,1.97147
-0.0041075,1.97114
-0.00410625,1.97147
-0.004105,1.97147
-0.00410375,1.97147
-0.0041025,1.97147
-0.00410125,1.97114
-0.0041,1.97114
-0.00409875,1.9708
-0.0040975,1.9708
-0.00409625,1.97147
-0.004095,1.97114
-0.00409375,1.97147
-0.0040925,1.97181
-0.00409125,1.97147
-0.00409,1.9708
-0.00408875,1.97114
-0.0040875,1.97114
-0.00408625,1.97114
-0.004085,1.97114
-0.00408375,1.97114
-0.0040825,1.97114
-0.00408125,1.97114
-0.00408,1.97147
-0.00407875,1.9708
-0.0040775,1.9708
-0.00407625,1.97114
-0.004075,1.97114
-0.00407375,1.97114
-0.0040725,1.97114
-0.00407125,1.97114
-0.00407,1.97147
-0.00406875,1.97147
-0.0040675,1.97114
-0.00406625,1.97114
-0.004065,1.97114
-0.00406375,1.97114
-0.0040625,1.9708
-0.00406125,1.9708
-0.00406,1.97047
-0.00405875,1.9708
-0.0040575,1.9708
-0.00405625,1.97114
-0.004055,1.97147
-0.00405375,1.97114
-0.0040525,1.9708
-0.00405125,1.9708
-0.00405,1.97114
-0.00404875,1.97147
-0.0040475,1.97114
-0.00404625,1.97147
-0.004045,1.9708
-0.00404375,1.9708
-0.0040425,1.97147
-0.00404125,1.97114
-0.00404,1.9708
-0.00403875,1.9708
-0.0040375,1.9708
-0.00403625,1.9708
-0.004035,1.97047
-0.00403375,1.9708
-0.0040325,1.97114
-0.00403125,1.9708
-0.00403,1.97114
-0.00402875,1.97114
-0.0040275,1.97114
-0.00402625,1.9708
-0.004025,1.9708
-0.00402375,1.9708
-0.0040225,1.9708
-0.00402125,1.9708
-0.00402,1.9708
-0.00401875,1.9708
-0.0040175,1.97047
-0.00401625,1.9708
-0.004015,1.97114
-0.00401375,1.97114
-0.0040125,1.9708
-0.00401125,1.9708
-0.00401,1.97047
-0.00400875,1.97047
-0.0040075,1.9708
-0.00400625,1.9708
-0.004005,1.9708
-0.00400375,1.9708
-0.0040025,1.9708
-0.00400125,1.98156
-0.004,2.00409
-0.00399875,2.00779
-0.0039975,2.01283
-0.00399625,2.01754
-0.003995,2.02258
-0.00399375,2.0283
-0.0039925,2.03402
-0.00399125,2.03906
-0.00399,2.04545
-0.00398875,2.05116
-0.0039875,2.05755
-0.00398625,2.06394
-0.003985,2.07067
-0.00398375,2.07672
-0.0039825,2.08412
-0.00398125,2.0905
-0.00398,2.09656
-0.00397875,2.10395
-0.0039775,2.11135
-0.00397625,2.11774
-0.003975,2.12514
-0.00397375,2.13186
-0.0039725,2.13892
-0.00397125,2.14565
-0.00397,2.15271
-0.00396875,2.16011
-0.0039675,2.16683
-0.00396625,2.17423
-0.003965,2.18163
-0.00396375,2.18835
-0.0039625,2.19575
-0.00396125,2.20315
-0.00396,2.21054
-0.00395875,2.21794
-0.0039575,2.225
-0.00395625,2.23206
-0.003955,2.2398
-0.00395375,2.2472
-0.0039525,2.25325
-0.00395125,2.26132
-0.00395,2.26872
-0.00394875,2.27544
-0.0039475,2.28284
-0.00394625,2.29057
-0.003945,2.29763
-0.00394375,2.30469
-0.0039425,2.31209
-0.00394125,2.31915
-0.00394,2.32655
-0.00393875,2.33428
-0.0039375,2.34168
-0.00393625,2.34841
-0.003935,2.35513
-0.00393375,2.36253
-0.0039325,2.37026
-0.00393125,2.37732
-0.00393,2.38438
-0.00392875,2.39212
-0.0039275,2.39918
-0.00392625,2.4059
-0.003925,2.41364
-0.00392375,2.4207
-0.0039225,2.4281
-0.00392125,2.43516
-0.00392,2.44222
-0.00391875,2.44928
-0.0039175,2.45634
-0.00391625,2.4634
-0.003915,2.47046
-0.00391375,2.47786
-0.0039125,2.48526
-0.00391125,2.49198
-0.00391,2.49938
-0.00390875,2.5061
-0.0039075,2.51317
-0.00390625,2.52056
-0.003905,2.52729
-0.00390375,2.53435
-0.0039025,2.54141
-0.00390125,2.54814
-0.0039,2.5552
-0.00389875,2.56226
-0.0038975,2.56932
-0.00389625,2.57672
-0.003895,2.5831
-0.00389375,2.5905
-0.0038925,2.59723
-0.00389125,2.60429
-0.00389,2.61135
-0.00388875,2.61807
-0.0038875,2.6248
-0.00388625,2.6322
-0.003885,2.63892
-0.00388375,2.64565
-0.0038825,2.65271
-0.00388125,2.65977
-0.00388,2.66616
-0.00387875,2.67288
-0.0038775,2.67994
-0.00387625,2.68667
-0.003875,2.69373
-0.00387375,2.70045
-0.0038725,2.70684
-0.00387125,2.71357
-0.00387,2.72063
-0.00386875,2.72702
-0.0038675,2.73408
-0.00386625,2.7408
-0.003865,2.74719
-0.00386375,2.75358
-0.0038625,2.76064
-0.00386125,2.76737
-0.00386,2.77409
-0.00385875,2.78014
-0.0038575,2.78687
-0.00385625,2.79359
-0.003855,2.80066
-0.00385375,2.80738
-0.0038525,2.81377
-0.00385125,2.82016
-0.00385,2.82688
-0.00384875,2.83361
-0.0038475,2.83966
-0.00384625,2.84639
-0.003845,2.85277
-0.00384375,2.8595
-0.0038425,2.86555
-0.00384125,2.87261
-0.00384,2.87934
-0.00383875,2.88539
-0.0038375,2.89245
-0.00383625,2.8985
-0.003835,2.90523
-0.00383375,2.91162
-0.0038325,2.91733
-0.00383125,2.92473
-0.00383,2.93112
-0.00382875,2.93717
-0.0038275,2.9439
